<?xml version="1.0" encoding="utf-8"?>
<!-- Generator: Adobe Illustrator 19.2.1, SVG Export Plug-In . SVG Version: 6.00 Build 0)  -->
<svg version="1.2" baseProfile="tiny" id="Layer_1" xmlns="http://www.w3.org/2000/svg" xmlns:xlink="http://www.w3.org/1999/xlink"
	 x="0px" y="0px" viewBox="0 0 221.21 44.16" xml:space="preserve">
<g>
	<path fill="#FFFFFF" d="M69.27,12.24l-2.81-9.16h2.72l1.42,5.66l1.45-5.66h2.66l-2.81,9.16v5.96h-2.63V12.24z"/>
	<path fill="#FFFFFF" d="M74.93,11.03v-0.78c0-4.99,1.62-7.38,4.02-7.38s4.02,2.4,4.02,7.38v0.78c0,4.99-1.62,7.38-4.02,7.38
		S74.93,16.02,74.93,11.03z M80.29,11.03v-0.78c0-3.89-0.54-4.97-1.34-4.97s-1.34,1.08-1.34,4.97v0.78c0,3.89,0.54,4.97,1.34,4.97
		S80.29,14.91,80.29,11.03z"/>
	<path fill="#FFFFFF" d="M84.33,13.79V3.08h2.63v10.97c0,1.36,0.47,1.88,1.12,1.88s1.12-0.52,1.12-1.88V3.08h2.63v10.71
		c0,3.17-1.6,4.6-3.76,4.6S84.33,16.97,84.33,13.79z"/>
	<path fill="#FFFFFF" d="M93.22,8.52c1.6-0.35,1.92-1.49,1.81-2.44H93.7v-3h2.98v2.46c0,2.29-1.1,3.76-3.24,4.04L93.22,8.52z"/>
	<path fill="#FFFFFF" d="M98.43,3.08h2.72c1.4,0,2.59,0.39,3.41,1.21c0.8,0.8,1.25,1.96,1.25,3.61v0.19c0,1.96-0.78,3.22-1.77,3.97
		l2.03,6.13h-2.81l-1.71-5.27h-0.5v5.27h-2.63V3.08z M101.19,10.55c1.14,0,1.99-0.67,1.99-2.44V7.94c0-1.9-0.91-2.4-2.05-2.4h-0.06
		v5.01H101.19z"/>
	<path fill="#FFFFFF" d="M107.13,3.08h5.79v2.5h-3.15v3.76h2.79v2.5h-2.79v3.84h3.22v2.5h-5.85V3.08z"/>
	<path fill="#FFFFFF" d="M117.91,3.08h2.72c1.4,0,2.59,0.39,3.41,1.21c0.8,0.8,1.25,1.96,1.25,3.61v0.19c0,1.96-0.78,3.22-1.77,3.97
		l2.03,6.13h-2.81l-1.71-5.27h-0.5v5.27h-2.63V3.08z M120.67,10.55c1.14,0,1.99-0.67,1.99-2.44V7.94c0-1.9-0.91-2.4-2.05-2.4h-0.06
		v5.01H120.67z"/>
	<path fill="#FFFFFF" d="M126.62,3.08h5.79v2.5h-3.15v3.76h2.79v2.5h-2.79v3.84h3.22v2.5h-5.85V3.08z"/>
	<path fill="#FFFFFF" d="M135.97,3.04h2.81l2.87,15.16h-2.63l-0.5-3h-2.4l-0.47,3h-2.55L135.97,3.04z M138.12,12.82l-0.8-4.99
		l-0.82,4.99H138.12z"/>
	<path fill="#FFFFFF" d="M142.55,3.08h2.46c3.37,0,5.29,2.44,5.29,7.3v0.52c0,4.86-1.92,7.3-5.29,7.3h-2.46V3.08z M145.19,5.5v10.28
		h0.11c1.25,0,2.33-1.1,2.33-4.88v-0.52c0-3.78-1.08-4.88-2.33-4.88H145.19z"/>
	<path fill="#FFFFFF" d="M153.33,12.24l-2.81-9.16h2.72l1.42,5.66l1.45-5.66h2.66l-2.81,9.16v5.96h-2.63V12.24z"/>
</g>
<g>
	<path fill="#FFFFFF" d="M68.65,29.59h-1.86v-2.5h6.35v2.5h-1.86V42.2h-2.63V29.59z"/>
	<path fill="#FFFFFF" d="M73.68,35.03v-0.78c0-4.99,1.62-7.38,4.02-7.38s4.02,2.4,4.02,7.38v0.78c0,4.99-1.62,7.38-4.02,7.38
		S73.68,40.02,73.68,35.03z M79.03,35.03v-0.78c0-3.89-0.54-4.97-1.34-4.97s-1.34,1.08-1.34,4.97v0.78c0,3.89,0.54,4.97,1.34,4.97
		S79.03,38.91,79.03,35.03z"/>
	<path fill="#FFFFFF" d="M86.66,27.08h2.63v12.61h2.79v2.5h-5.42V27.08z"/>
	<path fill="#FFFFFF" d="M93.25,27.08h5.79v2.5h-3.15v3.76h2.79v2.5h-2.79v3.84h3.22v2.5h-5.85V27.08z"/>
	<path fill="#FFFFFF" d="M102.6,27.04h2.81l2.87,15.16h-2.63l-0.5-3h-2.4l-0.47,3h-2.55L102.6,27.04z M104.76,36.82l-0.8-4.99
		l-0.82,4.99H104.76z"/>
	<path fill="#FFFFFF" d="M109.19,27.08h2.46c3.37,0,5.29,2.44,5.29,7.3v0.52c0,4.86-1.92,7.3-5.29,7.3h-2.46V27.08z M111.82,29.5
		v10.28h0.11c1.25,0,2.33-1.1,2.33-4.88v-0.52c0-3.78-1.08-4.88-2.33-4.88H111.82z"/>
</g>
<g>
	<polygon fill="none" points="22.32,40.53 41.09,40.53 42.16,31.92 21.25,31.92 	"/>
	<path fill="none" d="M50.84,19.42h-0.13c-0.3,0-0.56,0.22-0.6,0.47v0.13c0,0.26,0.22,0.52,0.47,0.56h0.13c0.3,0,0.52-0.22,0.6-0.47
		v-0.13C51.31,19.72,51.1,19.46,50.84,19.42z"/>
	<path fill="#FFFFFF" d="M52.77,20.15l0.34-0.08v-0.09c-0.09-0.21-0.13-0.39-0.17-0.6l-0.34-0.04c-0.04-0.13-0.13-0.26-0.17-0.39
		l0.21-0.3V18.6c-0.13-0.17-0.26-0.34-0.43-0.47l-0.04-0.04l-0.3,0.21c-0.13-0.09-0.26-0.17-0.43-0.21v-0.34H51.4
		c-0.04,0-0.09-0.04-0.17-0.04c-0.17-0.04-0.3-0.04-0.47-0.04h-0.04L50.58,18c-0.17,0-0.3,0.04-0.47,0.09l-0.17-0.3h-0.04
		c-0.21,0.09-0.39,0.17-0.56,0.3h-0.04l0.09,0.34c-0.13,0.08-0.21,0.21-0.3,0.3l-0.3-0.09v0.04c-0.13,0.17-0.21,0.39-0.3,0.6v0.04
		l0.3,0.21c-0.04,0.13-0.04,0.26-0.04,0.39l-0.34,0.08v0.04c0,0.21,0.04,0.43,0.13,0.65v0.04h0.34c0.04,0.13,0.08,0.21,0.17,0.34
		l-0.21,0.26l0.04,0.04c0.13,0.17,0.3,0.34,0.47,0.47h0.04l0.3-0.22c0.08,0.04,0.21,0.13,0.3,0.17v0.24c0.15,0.04,0.3,0.1,0.44,0.17
		c0.01,0,0.01,0.01,0.02,0.01c0.08,0.01,0.16,0.01,0.23,0.01h0.04l0.13-0.34c0.13,0,0.21-0.04,0.34-0.04l0.21,0.3h0.04
		c0.21-0.09,0.43-0.17,0.6-0.3h0.04L52,21.52c0.09-0.09,0.17-0.17,0.26-0.26l0.34,0.13l0.04-0.04c0.13-0.17,0.26-0.34,0.3-0.56
		v-0.04l-0.26-0.21c0-0.04,0.04-0.09,0.04-0.13C52.77,20.32,52.77,20.23,52.77,20.15z M51.31,20.11c-0.09,0.26-0.3,0.47-0.6,0.47
		h-0.13c-0.26-0.04-0.47-0.3-0.47-0.56v-0.13c0.04-0.26,0.3-0.47,0.6-0.47h0.13c0.26,0.04,0.47,0.3,0.47,0.56V20.11z"/>
	<circle fill="#FFFFFF" cx="31.67" cy="11.52" r="4.38"/>
	<path fill="#FFFFFF" d="M49.98,22.06c-1-0.27-2.08,0.17-2.58,1.13l-1.11,2.14l-6.39-6.99c-0.13-0.14-0.28-0.26-0.44-0.36
		c-0.61-0.5-1.62-0.86-3.22-0.97h-1.78v13.52H29V17.02l-10.33,0.02l4.57-8.18c0.58-1.04,0.3-2.32-0.6-3.05l9.13-4.4
		c0.34-0.16,0.49-0.58,0.32-0.92C31.93,0.14,31.52,0,31.17,0.17L20.09,5.51c0,0,0,0-0.01,0.01c-0.43,0.21-0.8,0.54-1.05,0.99
		l-6.58,11.77c-0.42,0.75-0.41,1.66,0.03,2.4c0.43,0.74,1.22,1.19,2.08,1.19c0,0,8.53-0.01,8.53-0.01v8.69h-3.4l1.24,9.99h-5.71
		v1.36h32.86v-1.36h-5.59l1.24-9.99h-3.43V25.4l4.87,5.33c0.43,0.47,1.03,0.73,1.65,0.73c0.1,0,0.2-0.01,0.29-0.02
		c0.73-0.1,1.36-0.54,1.7-1.19l2.58-5c0.56-1.09,0.14-2.43-0.95-3.01c-0.01,0-0.01-0.01-0.02-0.01
		C50.28,22.16,50.13,22.1,49.98,22.06z M42.16,31.92l-1.07,8.61H22.32l-1.07-8.61H42.16z"/>
</g>
<rect fill="none" width="221.21" height="44.16"/>
</svg>
