<?xml version="1.0" encoding="utf-8"?>
<!-- Generator: Adobe Illustrator 19.2.1, SVG Export Plug-In . SVG Version: 6.00 Build 0)  -->
<svg version="1.2" baseProfile="tiny" id="Layer_1" xmlns="http://www.w3.org/2000/svg" xmlns:xlink="http://www.w3.org/1999/xlink"
	 x="0px" y="0px" viewBox="0 0 221.21 44.16" xml:space="preserve">
<g>
	<path fill="#FFFFFF" d="M69.27,12.17l-2.81-9.16h2.72l1.42,5.66l1.45-5.66h2.66l-2.81,9.16v5.96h-2.63V12.17z"/>
	<path fill="#FFFFFF" d="M74.93,10.96v-0.78c0-4.99,1.62-7.38,4.02-7.38s4.02,2.4,4.02,7.38v0.78c0,4.99-1.62,7.38-4.02,7.38
		S74.93,15.94,74.93,10.96z M80.29,10.96v-0.78c0-3.89-0.54-4.97-1.34-4.97s-1.34,1.08-1.34,4.97v0.78c0,3.89,0.54,4.97,1.34,4.97
		S80.29,14.84,80.29,10.96z"/>
	<path fill="#FFFFFF" d="M84.33,13.72V3.01h2.63v10.97c0,1.36,0.47,1.88,1.12,1.88s1.12-0.52,1.12-1.88V3.01h2.63v10.71
		c0,3.17-1.6,4.6-3.76,4.6S84.33,16.9,84.33,13.72z"/>
	<path fill="#FFFFFF" d="M93.22,8.45c1.6-0.35,1.92-1.49,1.81-2.44H93.7v-3h2.98v2.46c0,2.29-1.1,3.76-3.24,4.04L93.22,8.45z"/>
	<path fill="#FFFFFF" d="M98.43,3.01h2.72c1.4,0,2.59,0.39,3.41,1.21c0.8,0.8,1.25,1.96,1.25,3.61v0.19c0,1.96-0.78,3.22-1.77,3.97
		l2.03,6.13h-2.81l-1.71-5.27h-0.5v5.27h-2.63V3.01z M101.19,10.48c1.14,0,1.99-0.67,1.99-2.44V7.87c0-1.9-0.91-2.4-2.05-2.4h-0.06
		v5.01H101.19z"/>
	<path fill="#FFFFFF" d="M107.13,3.01h5.79v2.5h-3.15v3.76h2.79v2.5h-2.79v3.84h3.22v2.5h-5.85V3.01z"/>
	<path fill="#FFFFFF" d="M117.91,3.01h2.35c2.87,0,4.88,1.55,4.88,5.1v0.04c0,3.41-1.9,5.03-4.58,5.23h-0.02v4.75h-2.63V3.01z
		 M120.57,10.94c1.1-0.07,1.94-0.86,1.94-2.7V8.19c0-1.92-0.73-2.74-1.88-2.74h-0.09v5.48H120.57z"/>
	<path fill="#FFFFFF" d="M127.69,2.97h2.81l2.87,15.16h-2.63l-0.5-3h-2.4l-0.47,3h-2.55L127.69,2.97z M129.85,12.75l-0.8-4.99
		l-0.82,4.99H129.85z"/>
	<path fill="#FFFFFF" d="M134.28,3.01H137c1.4,0,2.59,0.39,3.41,1.21c0.8,0.8,1.25,1.96,1.25,3.61v0.19c0,1.96-0.78,3.22-1.77,3.97
		l2.03,6.13h-2.81l-1.71-5.27h-0.5v5.27h-2.63V3.01z M137.05,10.48c1.14,0,1.99-0.67,1.99-2.44V7.87c0-1.9-0.91-2.4-2.05-2.4h-0.06
		v5.01H137.05z"/>
	<path fill="#FFFFFF" d="M144.2,5.52h-1.86v-2.5h6.35v2.5h-1.86v12.61h-2.63V5.52z"/>
	<path fill="#FFFFFF" d="M153.16,10.96v-0.78c0-4.99,1.62-7.38,4.02-7.38s4.02,2.4,4.02,7.38v0.78c0,4.99-1.62,7.38-4.02,7.38
		S153.16,15.94,153.16,10.96z M158.51,10.96v-0.78c0-3.89-0.54-4.97-1.34-4.97s-1.34,1.08-1.34,4.97v0.78
		c0,3.89,0.54,4.97,1.34,4.97S158.51,14.84,158.51,10.96z"/>
	<path fill="#FFFFFF" d="M162.58,3.01h5.51v2.5h-2.87v3.8h2.5v2.5h-2.5v6.3h-2.63V3.01z"/>
	<path fill="#FFFFFF" d="M175.04,2.97h2.81l2.87,15.16h-2.63l-0.5-3h-2.4l-0.48,3h-2.55L175.04,2.97z M177.2,12.75l-0.8-4.99
		l-0.82,4.99H177.2z"/>
</g>
<g>
	<path fill="#FFFFFF" d="M67.24,27.01h2.35c2.87,0,4.88,1.55,4.88,5.1v0.04c0,3.41-1.9,5.03-4.58,5.23h-0.02v4.75h-2.63V27.01z
		 M69.9,34.93c1.1-0.07,1.94-0.86,1.94-2.7v-0.04c0-1.92-0.73-2.74-1.88-2.74h-0.09v5.48H69.9z"/>
	<path fill="#FFFFFF" d="M75.67,27.01h2.72c1.4,0,2.59,0.39,3.41,1.21c0.8,0.8,1.25,1.96,1.25,3.61v0.19c0,1.96-0.78,3.22-1.77,3.97
		l2.03,6.13H80.5l-1.71-5.27h-0.5v5.27h-2.63V27.01z M78.43,34.48c1.14,0,1.99-0.67,1.99-2.44v-0.17c0-1.9-0.91-2.4-2.05-2.4H78.3
		v5.01H78.43z"/>
	<path fill="#FFFFFF" d="M84.09,34.95v-0.78c0-4.99,1.62-7.38,4.02-7.38s4.02,2.4,4.02,7.38v0.78c0,4.99-1.62,7.38-4.02,7.38
		S84.09,39.94,84.09,34.95z M89.44,34.95v-0.78c0-3.89-0.54-4.97-1.34-4.97s-1.34,1.08-1.34,4.97v0.78c0,3.89,0.54,4.97,1.34,4.97
		S89.44,38.84,89.44,34.95z"/>
	<path fill="#FFFFFF" d="M93.53,27.01h5.51v2.5h-2.87v3.8h2.5v2.5h-2.5v6.3h-2.63V27.01z"/>
	<path fill="#FFFFFF" d="M100.33,27.01h5.79v2.5h-3.15v3.76h2.79v2.5h-2.79v3.84h3.22v2.5h-5.85V27.01z"/>
	<path fill="#FFFFFF" d="M107.24,41.6v-2.7c0.93,0.54,1.53,0.84,2.33,0.84c0.84,0,1.45-0.5,1.45-1.49c0-0.5-0.15-1.19-1.45-2.59
		c-1.86-2.03-2.55-3.09-2.55-4.84c0-2.4,1.58-3.93,3.74-3.93c0.99,0,1.68,0.22,2.27,0.47v2.7c-0.82-0.47-1.32-0.69-2.01-0.69
		c-0.73,0-1.36,0.48-1.36,1.36c0,0.63,0.22,1.06,1.47,2.5c2.07,2.4,2.53,3.41,2.53,5.03c0,2.38-1.66,3.95-3.73,3.95
		C108.88,42.23,108,41.97,107.24,41.6z"/>
	<path fill="#FFFFFF" d="M114.35,41.6v-2.7c0.93,0.54,1.53,0.84,2.33,0.84c0.84,0,1.45-0.5,1.45-1.49c0-0.5-0.15-1.19-1.45-2.59
		c-1.86-2.03-2.55-3.09-2.55-4.84c0-2.4,1.58-3.93,3.74-3.93c0.99,0,1.68,0.22,2.27,0.47v2.7c-0.82-0.47-1.32-0.69-2.01-0.69
		c-0.73,0-1.36,0.48-1.36,1.36c0,0.63,0.22,1.06,1.47,2.5c2.07,2.4,2.53,3.41,2.53,5.03c0,2.38-1.66,3.95-3.74,3.95
		C115.99,42.23,115.1,41.97,114.35,41.6z"/>
	<path fill="#FFFFFF" d="M121.82,27.01h2.63v15.11h-2.63V27.01z"/>
	<path fill="#FFFFFF" d="M125.9,34.95v-0.78c0-4.99,1.62-7.38,4.02-7.38s4.02,2.4,4.02,7.38v0.78c0,4.99-1.62,7.38-4.02,7.38
		S125.9,39.94,125.9,34.95z M131.26,34.95v-0.78c0-3.89-0.54-4.97-1.34-4.97s-1.34,1.08-1.34,4.97v0.78c0,3.89,0.54,4.97,1.34,4.97
		S131.26,38.84,131.26,34.95z"/>
	<path fill="#FFFFFF" d="M135.34,27.01h2.44l2.72,7.82v-7.82h2.53v15.11h-2.31l-2.85-8.18v8.18h-2.53V27.01z"/>
	<path fill="#FFFFFF" d="M146.81,26.96h2.81l2.87,15.16h-2.63l-0.5-3h-2.4l-0.47,3h-2.55L146.81,26.96z M148.97,36.74l-0.8-4.99
		l-0.82,4.99H148.97z"/>
	<path fill="#FFFFFF" d="M153.4,27.01h2.63v12.61h2.79v2.5h-5.42V27.01z"/>
	<path fill="#FFFFFF" d="M163.25,34.82V34.3c0-5.31,1.96-7.41,4.43-7.41c0.73,0,1.17,0.09,1.73,0.35v2.72
		c-0.54-0.32-0.97-0.5-1.47-0.5c-1.17,0-2.01,1.04-2.01,4.81v0.56c0,3.99,0.84,4.82,2.05,4.82c0.41,0,0.93-0.15,1.47-0.48v2.59
		c-0.6,0.35-1.19,0.45-1.94,0.45C165.08,42.23,163.25,40.09,163.25,34.82z"/>
	<path fill="#FFFFFF" d="M170.87,27.01h2.63v12.61h2.79v2.5h-5.42V27.01z"/>
	<path fill="#FFFFFF" d="M177.22,37.72V27.01h2.63v10.97c0,1.36,0.48,1.88,1.12,1.88s1.12-0.52,1.12-1.88V27.01h2.63v10.71
		c0,3.17-1.6,4.6-3.76,4.6S177.22,40.89,177.22,37.72z"/>
	<path fill="#FFFFFF" d="M186.36,27.01h2.25c1.55,0,3.04,0.39,3.93,1.27c0.65,0.65,0.99,1.47,0.99,2.57v0.11
		c0,1.94-1.1,2.89-2.18,3.41c1.27,0.56,2.38,1.45,2.38,3.37v0.19c0,2.68-2.07,4.19-5.01,4.19h-2.35V27.01z M190.93,31.32
		c0-1.32-0.78-1.88-1.94-1.88h-0.04v3.91h0.04c1.17,0,1.94-0.67,1.94-1.99V31.32z M189.01,35.64h-0.06v4.04h0.06
		c1.21,0,2.07-0.71,2.07-1.96v-0.11C191.08,36.36,190.22,35.64,189.01,35.64z"/>
</g>
<g>
	<path fill="none" d="M32.6,8.86c-0.03,0.01-0.06,0.02-0.09,0.04c-0.27,3.77-0.42,7.81-0.42,12.01c0,4.33,0.16,8.49,0.44,12.37
		c0.02,0,0.05,0.01,0.07,0.01c1.43-0.25,10.46-2.62,11.48-22.51c-0.42,0.02-0.89,0.04-1.4,0.04C40.17,10.81,36.46,10.46,32.6,8.86z"
		/>
	<path fill="#FFFFFF" d="M42.67,7.04c-2.3,0-5.78-0.34-9.28-1.96L32.6,4.73l-0.79,0.36c-3.51,1.61-6.99,1.96-9.28,1.96
		c-1.82,0-3.01-0.21-3.01-0.21L17.23,6.4l0.05,2.32c0.57,26.83,14.57,28.3,15.16,28.35l0.16,0.01l0.16-0.01
		c0.6-0.05,14.6-1.53,15.16-28.35l0.04-2.31l-2.27,0.42C45.68,6.83,44.5,7.04,42.67,7.04z M32.6,33.29c-0.02,0-0.04-0.01-0.07-0.01
		c-0.28-3.88-0.44-8.04-0.44-12.37c0-4.2,0.15-8.23,0.42-12.01c0.03-0.01,0.06-0.02,0.09-0.04c3.85,1.61,7.57,1.96,10.07,1.96
		c0.51,0,0.98-0.01,1.4-0.04C43.06,30.67,34.03,33.04,32.6,33.29z"/>
</g>
<rect fill="none" width="221.21" height="44.16"/>
</svg>
