<?xml version="1.0" encoding="utf-8"?>
<!-- Generator: Adobe Illustrator 19.2.1, SVG Export Plug-In . SVG Version: 6.00 Build 0)  -->
<svg version="1.2" baseProfile="tiny" id="Layer_1" xmlns="http://www.w3.org/2000/svg" xmlns:xlink="http://www.w3.org/1999/xlink"
	 x="0px" y="0px" viewBox="0 0 121.53 130.65" xml:space="preserve">
<path fill="#FFFFFF" d="M54.91,60.32H41.22c-2.45,0-4.45-1.99-4.45-4.45c0-2.45,1.99-4.45,4.45-4.45h13.69
	c2.45,0,4.45,1.99,4.45,4.45C59.36,58.33,57.37,60.32,54.91,60.32"/>
<path fill="#FFFFFF" d="M54.91,71.25H39.16c-2.46,0-4.45-1.99-4.45-4.45c0-2.45,1.99-4.45,4.45-4.45H54.9c2.45,0,4.45,2,4.45,4.45
	C59.36,69.27,57.37,71.25,54.91,71.25"/>
<path fill="#FFFFFF" d="M54.91,82.18h-9.58c-2.45,0-4.45-1.99-4.45-4.45c0-2.45,1.99-4.44,4.45-4.44h9.58
	c2.45,0,4.45,1.99,4.45,4.44C59.36,80.2,57.37,82.18,54.91,82.18"/>
<path fill="#FFFFFF" d="M84.84,50.45l-9.57-10.8c-0.46-0.52-1.03-0.92-1.67-1.17c-13.89-5.45-13.89-5.44-15.7-4.2l-11.46,7.4
	c-2.03,1.31-2.61,4.02-1.3,6.05c1.31,2.03,4.02,2.61,6.04,1.3l6.91-4.46c1.27,6.86,4.33,17.8,11.3,21.55
	c8.64,4.64,14.02,2.43,14.02,2.43v2.48c0,0-5.63,1.12-10.77-0.66c-6.42-2.22-11.15-7.21-11.15-7.21v19.1h12.57
	c0,0,3.67-0.24,6.42-1.75c2.45-1.35,3.89-4.34,3.89-4.34h37.17V50.45H84.84z"/>
<rect x="14.78" y="18.28" transform="matrix(0.3796 -0.9252 0.9252 0.3796 2.1832 48.9934)" fill="#FFFFFF" width="45.67" height="9.18"/>
<polygon fill="#FFFFFF" points="48.26,130.65 22.76,76.56 31.06,72.65 56.57,126.73 "/>
<rect x="11.77" y="38.7" transform="matrix(0.9407 -0.3392 0.3392 0.9407 -15.2228 8.3822)" fill="#FFFFFF" width="9.19" height="18.08"/>
<rect x="7.08" y="69.51" transform="matrix(0.6728 -0.7398 0.7398 0.6728 -50.0211 35.0885)" fill="#FFFFFF" width="15.17" height="9.18"/>
<rect x="42.7" y="21.04" transform="matrix(0.7071 -0.7071 0.7071 0.7071 -0.2199 45.6273)" fill="#FFFFFF" width="24.53" height="4.08"/>
<rect x="50.38" y="89.09" transform="matrix(0.7682 -0.6403 0.6403 0.7682 -49.99 56.0615)" fill="#FFFFFF" width="4.08" height="15.94"/>
<rect x="1.72" y="14.76" transform="matrix(0.5296 -0.8482 0.8482 0.5296 -13.4358 13.8897)" fill="#FFFFFF" width="8.16" height="8.59"/>
<rect x="15" y="21.45" transform="matrix(0.071 -0.9975 0.9975 0.071 -7.1052 43.4343)" fill="#FFFFFF" width="9.52" height="8.16"/>
</svg>
