<?xml version="1.0" encoding="utf-8"?>
<!-- Generator: Adobe Illustrator 19.2.1, SVG Export Plug-In . SVG Version: 6.00 Build 0)  -->
<svg version="1.2" baseProfile="tiny" id="Layer_1" xmlns="http://www.w3.org/2000/svg" xmlns:xlink="http://www.w3.org/1999/xlink"
	 x="0px" y="0px" viewBox="0 0 51.12 46.16" xml:space="preserve">
<path fill="#FFFFFF" d="M7.51,35.37L4.7,26.24c-0.15-0.38-0.24-0.9-0.16-1.28c0.21-0.97,0.9-1.59,2.07-1.39
	c0.78,0.13,1.31,0.73,1.6,1.62l2.88,9.15c0.59,1.97,1.92,3.13,3.99,3.49c0.52,0.09,1.09,0.1,1.72,0.03l5.23-0.62
	c0.27-0.04,0.52-0.05,0.73-0.01c1.25,0.22,1.77,0.93,1.56,2.14c-0.16,0.9-0.8,1.41-1.93,1.53l-5.43,0.59
	c-0.91,0.11-1.77,0.09-2.59-0.05C10.85,40.81,8.56,38.8,7.51,35.37"/>
<path fill="#FFFFFF" d="M40.54,12.76c-0.23,0-0.46-0.08-0.65-0.23l-3.52-2.92c-0.43-0.36-0.49-0.99-0.13-1.43
	c0.36-0.43,1-0.49,1.43-0.13l2.85,2.36l4.27-3.81c0.42-0.37,1.06-0.34,1.43,0.08c0.37,0.42,0.33,1.06-0.08,1.43l-4.92,4.38
	C41.02,12.68,40.78,12.76,40.54,12.76"/>
<path fill="#FFFFFF" d="M8.66,16.16c0,2.39-1.94,4.33-4.33,4.33C1.94,20.49,0,18.55,0,16.16c0-2.39,1.94-4.33,4.33-4.33
	C6.72,11.83,8.66,13.77,8.66,16.16"/>
<path fill="#FFFFFF" d="M32.11,10.51c0-4.68,3.81-8.49,8.49-8.49c4.68,0,8.49,3.81,8.49,8.49c0,4.68-3.81,8.49-8.49,8.49
	C35.92,19.01,32.11,15.2,32.11,10.51 M39.31,26.08l0.9,4.13c-0.19,0.25-1.74,2.19-3.66,2.68l-0.18-4.82
	C37.61,27.98,38.65,26.94,39.31,26.08 M41.41,35.79c-0.47,0.5-2.29,2.25-4.67,2.37l-0.16-4.3c1.76-0.37,3.19-1.68,3.88-2.46
	L41.41,35.79z M36.07,19.99c0.66,0.32,1.36,0.57,2.09,0.74l0.88,4.08c-0.52,0.84-1.62,2.19-2.71,2.31L36.07,19.99z M31.62,36.45
	l0.6-3.48c0.73,0.49,1.83,1.02,3.28,1.02c0.04,0,0.09-0.01,0.14-0.01l0.15,4.15C33.67,37.94,32.25,36.98,31.62,36.45 M29.45,28.15
	l-8.39,0.9l5.84-5.19c0.07,0.54,0.3,1.22,0.94,1.85c0.62,0.62,1.45,0.79,2.15,0.79c0.23,0,0.44-0.02,0.64-0.05l-0.85,1.63l0.33,0.18
	c-0.05-0.01-0.09-0.03-0.14-0.04C29.8,28.19,29.63,28.17,29.45,28.15 M27.84,23.03l2.02-1.79c0.09,0.49,0.37,0.99,0.99,1.39
	c0.44,0.29,0.89,0.39,1.31,0.39c0.1,0,0.2-0.01,0.3-0.02l-1.26,2.41l-0.01-0.03c-0.02,0-1.76,0.56-2.67-0.34
	C27.68,24.22,27.81,23.21,27.84,23.03 M32.67,24.6l2.44-4.67l0.26,7.1C33.65,26.6,32.91,25.21,32.67,24.6 M31.83,29.51
	c-0.35-0.49-0.75-0.83-1.18-1.05l1.48-2.83c0.51,0.89,1.53,2.02,3.28,2.36l0.19,5.03c-1.54,0.03-2.64-0.64-3.2-1.09l0.01-0.09
	C32.56,31.02,32.36,30.24,31.83,29.51 M30.84,20.36l2.52-2.24c0.36,0.34,0.74,0.66,1.14,0.94l-1.45,2.77c-0.45,0.22-1.1,0.39-1.7,0
	C30.6,21.34,30.72,20.69,30.84,20.36 M51.12,10.51C51.12,4.72,46.4,0,40.6,0c-5.8,0-10.51,4.72-10.51,10.51c0,2.65,1,5.07,2.62,6.93
	L20.13,28.6l-2.91-8.92c-0.42-1.4-1.3-2.22-2.64-2.45c-1.03-0.18-2.01,0.03-2.93,0.62c-0.92,0.59-1.47,1.4-1.65,2.43
	c-0.1,0.56-0.04,1.17,0.17,1.83l3.41,10.7c0.49,1.51,1.46,2.39,2.91,2.65c0.34,0.06,0.72,0.07,1.12,0.04l9.73-1.23l-1.58,9.1
	c-0.27,1.56,0.35,2.47,1.85,2.73c1.51,0.26,2.39-0.36,2.65-1.87l1.17-6.74c0.87,0.63,2.34,1.42,4.39,1.58l0.26,7.07h0.95l-0.26-7.04
	c2.25-0.11,4.01-1.41,4.88-2.22l2,9.27h0.97l-4.58-21.17c0.01-0.01,0.02-0.05,0.03-0.05l-0.04-0.02l-0.86-3.99
	c0.47,0.07,0.95,0.11,1.44,0.11C46.4,21.03,51.12,16.31,51.12,10.51"/>
</svg>
